A bit more on Keras…
…
1. Prepare data

Scaling, training and test

nn_dat <- iris %>%
  as_tibble %>%
  mutate_if(is.numeric, scale) %>%
  mutate(Species_num = as.numeric(Species) - 1,
         data_type = sample(x = c('train', 'test'), size = nrow(.),
                            replace = TRUE, prob = c(0.80, 0.20))) %>% 
  sample_n(size = nrow(.))
nn_dat

## # A tibble: 150 x 7
##    Sepal.Length Sepal.Width Petal.Length Petal.Width Species Species_num
##           <dbl>       <dbl>        <dbl>       <dbl> <fct>         <dbl>
##  1       -1.50       0.0979       -1.28       -1.31  setosa            0
##  2       -1.02       1.02         -1.22       -0.786 setosa            0
##  3        1.03      -1.28          1.16        0.788 virgin…           2
##  4        0.551     -1.28          0.647       0.394 versic…           1
##  5        1.03       0.0979        1.04        1.58  virgin…           2
##  6        1.03      -0.132         0.704       0.657 versic…           1
##  7        1.88      -0.590         1.33        0.919 virgin…           2
##  8       -1.50       1.25         -1.56       -1.31  setosa            0
##  9        0.431     -1.97          0.420       0.394 versic…           1
## 10       -0.777      0.786        -1.34       -1.31  setosa            0
## # … with 140 more rows, and 1 more variable: data_type <chr>
…
